…
``` r
# and then save that
saveRDS(genos_long_explicit_NAs, file = "../data_AFSC/processed/called_genos_na_explicit.rds", compress = "xz")
```

Using those genotypes…

``` r
genos_long_explicit_NAs %>%
  group_by(gtseq_run, id) %>%
  tally() 
```

    ## # A tibble: 568 x 3
    ## # Groups:   gtseq_run [4]
    ##    gtseq_run id        n
    ##    <chr>     <chr> <int>
    ##  1 gtseq1    s100    180
    ##  2 gtseq1    s101    180
    ##  3 gtseq1    s102    180
    ##  4 gtseq1    s103    180
    ##  5 gtseq1    s104    180
    ##  6 gtseq1    s105    180
    ##  7 gtseq1    s106    180
    ##  8 gtseq1    s107    180
    ##  9 gtseq1    s108    180
    ## 10 gtseq1    s109    180
    ## # ... with 558 more rows
…
    ## Joining, by = "locus"

``` r
# remind myself which species are in the baseline:
baseline90 %>%
  select(collection) %>%
  unique() %>%
  arrange()
```

    ## # A tibble: 54 x 1
    ##    collection   
    ##    <chr>        
    ##  1 aleutianus   
    ##  2 alutus       
    ##  3 auriculatus  
    ##  4 aurora       
    ##  5 babcocki     
    ##  6 borealis     
    ##  7 caurinus     
    ##  8 chlorostictus
    ##  9 constellatus 
    ## 10 crameri      
    ## # ... with 44 more rows
…
``` r
# take the top output for each sample
top_assign <- rubias_output$indiv_posteriors %>%
  group_by(indiv) %>%
  slice_max(., order_by = PofZ)


top_assign
```

    ## # A tibble: 409 x 10
    ## # Groups:   indiv [409]
    ##    mixture~1 indiv repunit colle~2  PofZ log_l~3 z_score n_non~4 n_mis~5 missi~6
    ##    <chr>     <chr> <chr>   <chr>   <dbl>   <dbl>   <dbl>   <int>   <int> <list> 
    ##  1 larvae    gtse~ rufina~ rufina~     1   -464.   -57.7      72      18 <int>  
    ##  2 larvae    gtse~ rufina~ rufina~     1   -477.   -59.0      74      16 <int>  
    ##  3 larvae    gtse~ rufina~ rufina~     1   -463.   -56.1      73      17 <int>  
    ##  4 larvae    gtse~ rufina~ rufina~     1   -494.   -57.7      77      13 <int>  
    ##  5 larvae    gtse~ rufina~ rufina~     1   -486.   -59.7      76      14 <int>  
    ##  6 larvae    gtse~ rufina~ rufina~     1   -487.   -63.9      76      14 <int>  
    ##  7 larvae    gtse~ rufina~ rufina~     1   -486.   -59.7      76      14 <int>  
    ##  8 larvae    gtse~ rufina~ rufina~     1   -448.   -55.5      72      18 <int>  
    ##  9 larvae    gtse~ rufina~ rufina~     1   -464.   -57.0      73      17 <int>  
    ## 10 larvae    gtse~ rufina~ rufina~     1   -476.   -55.6      74      16 <int>  
    ## # ... with 399 more rows, and abbreviated variable names 1: mixture_collection,
    ## #   2: collection, 3: log_likelihood, 4: n_non_miss_loci, 5: n_miss_loci,
    ## #   6: missing_loci
…
    ## 
    ## `stat_bin()` using `bins = 30`. Pick better value with `binwidth`.

``` r
spp_id_w_knowns %>%
  select(-missing_loci) %>%
  write_csv("csv_outputs/known_northern_POP_dusky_rubias_id.csv")

spp_id_w_knowns %>%
  filter(SpeciesName == "Sebastes polyspinis")
```

    ## # A tibble: 48 x 16
    ##    rubias_~1 Speci~2 z_score mixtu~3 gtseq~4 id    repunit  PofZ log_l~5 n_non~6
    ##    <chr>     <chr>     <dbl> <chr>   <chr>   <chr> <chr>   <dbl>   <dbl>   <int>
    ##  1 polyspin~ Sebast~ -0.108  larvae  gtseq2  s1    polysp~     1   -40.2      82
    ##  2 polyspin~ Sebast~  0.816  larvae  gtseq2  s10   polysp~     1   -33.0      80
    ##  3 polyspin~ Sebast~  0.0213 larvae  gtseq2  s11   polysp~     1   -39.3      82
    ##  4 polyspin~ Sebast~ -2.95   larvae  gtseq2  s12   polysp~     1   -60.6      84
    ##  5 polyspin~ Sebast~  0.976  larvae  gtseq2  s13   polysp~     1   -33.3      83
    ##  6 polyspin~ Sebast~  0.712  larvae  gtseq2  s14   polysp~     1   -35.2      83
    ##  7 polyspin~ Sebast~ -1.98   larvae  gtseq2  s15   polysp~     1   -53.8      84
    ##  8 polyspin~ Sebast~ -0.835  larvae  gtseq2  s16   polysp~     1   -45.2      81
    ##  9 polyspin~ Sebast~ -1.55   larvae  gtseq2  s17   polysp~     1   -50.9      83
    ## 10 polyspin~ Sebast~ -0.576  larvae  gtseq2  s18   polysp~     1   -44.1      83
    ## # ... with 38 more rows, 6 more variables: n_miss_loci <int>,
    ## #   missing_loci <list>, Sample_ID <chr>, AlternateID_s_ <chr>,
    ## #   Sample_Plate <chr>, Sample_Well <chr>, and abbreviated variable names
    ## #   1: rubias_assignment, 2: SpeciesName, 3: mixture_collection, 4: gtseq_run,
    ## #   5: log_likelihood, 6: n_non_miss_loci
…
